{
    "concatenation": [
        {
            "line_index": 0,
            "number_of_words": 6,
            "words": [
                {
                    "type": "string",
                    "url": "http://bizlem.io/PurchaseOrderProcessing#TaxInvoice",
                    "word": "TAX INVOICE.-ORIGINALFORRECIPIENT INVOICE",
                    "x1": 48,
                    "x2": 735
                },
                {
                    "type": "string",
                    "url": null,
                    "word": ":5209",
                    "x1": 742,
                    "x2": 772
                },
                {
                    "type": "string",
                    "url": null,
                    "word": "|",
                    "x1": 782,
                    "x2": 785
                },
                {
                    "type": "string",
                    "url": null,
                    "word": "INVOICEDATE:28/11/2018",
                    "x1": 794,
                    "x2": 945
                },
                {
                    "type": "string",
                    "url": null,
                    "word": "|",
                    "x1": 956,
                    "x2": 959
                },
                {
                    "type": "string",
                    "url": "http://bizlem.io/PurchaseOrderProcessing#AmountNumbers",
                    "word": "AMOUNT:10054.00",
                    "x1": 968,
                    "x2": 1080
                }
            ],
            "y": 80
        },
        {
            "line_index": 1,
            "number_of_words": 3,
            "words": [
                {
                    "type": "string",
                    "url": null,
                    "word": "CoolLineAgencyPvt.",
                    "x1": 48,
                    "x2": 183
                },
                {
                    "type": "string",
                    "url": null,
                    "word": "Ltd.",
                    "x1": 189,
                    "x2": 214
                },
                {
                    "type": "string",
                    "url": null,
                    "word": "Address:",
                    "x1": 587,
                    "x2": 631
                }
            ],
            "y": 104
        },
        {
            "line_index": 2,
            "number_of_words": 7,
            "words": [
                {
                    "type": "string",
                    "url": "http://bizlem.io/PurchaseOrderProcessing#GSTIN",
                    "word": "GSTIN",
                    "x1": 45,
                    "x2": 73
                },
                {
                    "type": "string",
                    "url": null,
                    "word": "No.:",
                    "x1": 82,
                    "x2": 108
                },
                {
                    "type": "string",
                    "url": null,
                    "word": "24AADCC8528K1ZH",
                    "x1": 118,
                    "x2": 221
                },
                {
                    "type": "number",
                    "url": null,
                    "word": "125206",
                    "x1": 390,
                    "x2": 476
                },
                {
                    "type": "string",
                    "url": null,
                    "word": "101-103,",
                    "x1": 589,
                    "x2": 633
                },
                {
                    "type": "string",
                    "url": null,
                    "word": "ShlokBusinessCenter,BesideAppleHospital,Udhna",
                    "x1": 639,
                    "x2": 913
                },
                {
                    "type": "string",
                    "url": null,
                    "word": "DarwajaSuratGUJARAT-24",
                    "x1": 919,
                    "x2": 1057
                }
            ],
            "y": 125
        },
        {
            "line_index": 3,
            "number_of_words": 3,
            "words": [
                {
                    "type": "string",
                    "url": null,
                    "word": "P.A.N.:",
                    "x1": 47,
                    "x2": 82
                },
                {
                    "type": "string",
                    "url": null,
                    "word": "AADCC8528K",
                    "x1": 116,
                    "x2": 180
                },
                {
                    "type": "string",
                    "url": null,
                    "word": "ContactNo.:,70968-11111",
                    "x1": 586,
                    "x2": 733
                }
            ],
            "y": 143
        },
        {
            "line_index": 4,
            "number_of_words": 3,
            "words": [
                {
                    "type": "string",
                    "url": null,
                    "word": "Email:coollinecoporation",
                    "x1": 588,
                    "x2": 724
                },
                {
                    "type": "string",
                    "url": null,
                    "word": "@",
                    "x1": 731,
                    "x2": 734
                },
                {
                    "type": "string",
                    "url": null,
                    "word": "gmail.com",
                    "x1": 740,
                    "x2": 790
                }
            ],
            "y": 156
        },
        {
            "line_index": 5,
            "number_of_words": 2,
            "words": [
                {
                    "type": "string",
                    "url": null,
                    "word": "Place",
                    "x1": 47,
                    "x2": 71
                },
                {
                    "type": "string",
                    "url": null,
                    "word": "ofSupply:GUJARAT-24",
                    "x1": 77,
                    "x2": 192
                }
            ],
            "y": 169
        },
        {
            "line_index": 6,
            "number_of_words": 6,
            "words": [
                {
                    "type": "string",
                    "url": null,
                    "word": "DetailsofReceiver(Billed",
                    "x1": 152,
                    "x2": 304
                },
                {
                    "type": "string",
                    "url": null,
                    "word": "to)",
                    "x1": 312,
                    "x2": 327
                },
                {
                    "type": "string",
                    "url": null,
                    "word": "DetailsofConsignee",
                    "x1": 528,
                    "x2": 649
                },
                {
                    "type": "string",
                    "url": null,
                    "word": "(Shipped",
                    "x1": 655,
                    "x2": 707
                },
                {
                    "type": "string",
                    "url": null,
                    "word": "to)",
                    "x1": 713,
                    "x2": 729
                },
                {
                    "type": "string",
                    "url": null,
                    "word": "OtherDetails",
                    "x1": 917,
                    "x2": 995
                }
            ],
            "y": 197
        },
        {
            "line_index": 7,
            "number_of_words": 6,
            "words": [
                {
                    "type": "string",
                    "url": null,
                    "word": "M/S.",
                    "x1": 49,
                    "x2": 72
                },
                {
                    "type": "string",
                    "url": null,
                    "word": "ESSARSTEELINDIA",
                    "x1": 78,
                    "x2": 169
                },
                {
                    "type": "string",
                    "url": null,
                    "word": "LTD.",
                    "x1": 175,
                    "x2": 197
                },
                {
                    "type": "string",
                    "url": null,
                    "word": "M/S.ESSARSTEELINDIALTD.",
                    "x1": 440,
                    "x2": 584
                },
                {
                    "type": "string",
                    "url": null,
                    "word": "ChallanNo:",
                    "x1": 829,
                    "x2": 888
                },
                {
                    "type": "number",
                    "url": null,
                    "word": "165",
                    "x1": 895,
                    "x2": 909
                }
            ],
            "y": 218
        },
        {
            "line_index": 8,
            "number_of_words": 5,
            "words": [
                {
                    "type": "number",
                    "url": null,
                    "word": "27",
                    "x1": 48,
                    "x2": 60
                },
                {
                    "type": "string",
                    "url": null,
                    "word": "K.M",
                    "x1": 66,
                    "x2": 77
                },
                {
                    "type": "string",
                    "url": null,
                    "word": ".,SURATHAZIRAROAD,",
                    "x1": 84,
                    "x2": 200
                },
                {
                    "type": "string",
                    "url": null,
                    "word": "27K.M.,SURATHAZIRAROAD,",
                    "x1": 438,
                    "x2": 590
                },
                {
                    "type": "string",
                    "url": "http://bizlem.io/PurchaseOrderProcessing#Transport",
                    "word": "Transport:",
                    "x1": 829,
                    "x2": 883
                }
            ],
            "y": 234
        },
        {
            "line_index": 9,
            "number_of_words": 3,
            "words": [
                {
                    "type": "string",
                    "url": null,
                    "word": "HAZIRA-SURAT.",
                    "x1": 50,
                    "x2": 125
                },
                {
                    "type": "string",
                    "url": null,
                    "word": "HAZIRA-SURAT",
                    "x1": 437,
                    "x2": 510
                },
                {
                    "type": "string",
                    "url": null,
                    "word": "L.R.No.:",
                    "x1": 829,
                    "x2": 872
                }
            ],
            "y": 253
        },
        {
            "line_index": 10,
            "number_of_words": 4,
            "words": [
                {
                    "type": "string",
                    "url": null,
                    "word": "HAZIRA,",
                    "x1": 49,
                    "x2": 89
                },
                {
                    "type": "string",
                    "url": null,
                    "word": "HAZIRA,",
                    "x1": 438,
                    "x2": 479
                },
                {
                    "type": "string",
                    "url": "http://bizlem.io/PurchaseOrderProcessing#Date",
                    "word": "Date",
                    "x1": 827,
                    "x2": 849
                },
                {
                    "type": "string",
                    "url": null,
                    "word": ":",
                    "x1": 858,
                    "x2": 860
                }
            ],
            "y": 272
        },
        {
            "line_index": 11,
            "number_of_words": 3,
            "words": [
                {
                    "type": "string",
                    "url": null,
                    "word": "SURAT.,GUJARAT-24",
                    "x1": 50,
                    "x2": 150
                },
                {
                    "type": "string",
                    "url": null,
                    "word": "SURAT.,GUJARAT-24",
                    "x1": 439,
                    "x2": 538
                },
                {
                    "type": "string",
                    "url": null,
                    "word": "Veh.No.:",
                    "x1": 828,
                    "x2": 877
                }
            ],
            "y": 293
        },
        {
            "line_index": 12,
            "number_of_words": 6,
            "words": [
                {
                    "type": "string",
                    "url": "http://bizlem.io/PurchaseOrderProcessing#GSTIN",
                    "word": "GSTIN",
                    "x1": 238,
                    "x2": 263
                },
                {
                    "type": "string",
                    "url": null,
                    "word": "NO.:24AAACE1741P1ZN",
                    "x1": 271,
                    "x2": 391
                },
                {
                    "type": "string",
                    "url": null,
                    "word": "GSTINNO.:",
                    "x1": 621,
                    "x2": 680
                },
                {
                    "type": "string",
                    "url": null,
                    "word": "24AAACE1741P1ZN",
                    "x1": 686,
                    "x2": 776
                },
                {
                    "type": "string",
                    "url": null,
                    "word": "To",
                    "x1": 829,
                    "x2": 837
                },
                {
                    "type": "string",
                    "url": null,
                    "word": ":",
                    "x1": 846,
                    "x2": 848
                }
            ],
            "y": 312
        },
        {
            "line_index": 13,
            "number_of_words": 10,
            "words": [
                {
                    "type": "string",
                    "url": null,
                    "word": "No.",
                    "x1": 48,
                    "x2": 65
                },
                {
                    "type": "string",
                    "url": "http://bizlem.io/PurchaseOrderProcessing#DescriptionOfServices",
                    "word": "Description",
                    "x1": 180,
                    "x2": 237
                },
                {
                    "type": "string",
                    "url": null,
                    "word": "Hsn/Sac",
                    "x1": 359,
                    "x2": 398
                },
                {
                    "type": "string",
                    "url": "http://bizlem.io/PurchaseOrderProcessing#Quantity",
                    "word": "Qty.",
                    "x1": 427,
                    "x2": 449
                },
                {
                    "type": "string",
                    "url": "http://bizlem.io/PurchaseOrderProcessing#Unit",
                    "word": "Unit Rate",
                    "x1": 479,
                    "x2": 552
                },
                {
                    "type": "string",
                    "url": "http://bizlem.io/PurchaseOrderProcessing#Discount",
                    "word": "Total Discount",
                    "x1": 618,
                    "x2": 713
                },
                {
                    "type": "string",
                    "url": null,
                    "word": "Taxable",
                    "x1": 754,
                    "x2": 789
                },
                {
                    "type": "string",
                    "url": null,
                    "word": "S.Gst",
                    "x1": 840,
                    "x2": 864
                },
                {
                    "type": "string",
                    "url": null,
                    "word": "C.Gst",
                    "x1": 937,
                    "x2": 960
                },
                {
                    "type": "string",
                    "url": null,
                    "word": "1.Gst",
                    "x1": 1027,
                    "x2": 1048
                }
            ],
            "y": 333
        },
        {
            "line_index": 14,
            "number_of_words": 11,
            "words": [
                {
                    "type": "string",
                    "url": null,
                    "word": "%",
                    "x1": 660,
                    "x2": 663
                },
                {
                    "type": "string",
                    "url": "http://bizlem.io/PurchaseOrderProcessing#AmountNumbers",
                    "word": "Amount",
                    "x1": 690,
                    "x2": 728
                },
                {
                    "type": "string",
                    "url": null,
                    "word": "Value",
                    "x1": 759,
                    "x2": 785
                },
                {
                    "type": "string",
                    "url": "http://bizlem.io/PurchaseOrderProcessing#Rate",
                    "word": "Rate",
                    "x1": 811,
                    "x2": 831
                },
                {
                    "type": "string",
                    "url": null,
                    "word": "%",
                    "x1": 839,
                    "x2": 842
                },
                {
                    "type": "string",
                    "url": null,
                    "word": "Amount",
                    "x1": 858,
                    "x2": 897
                },
                {
                    "type": "string",
                    "url": null,
                    "word": "Rate",
                    "x1": 908,
                    "x2": 928
                },
                {
                    "type": "string",
                    "url": null,
                    "word": "%",
                    "x1": 934,
                    "x2": 937
                },
                {
                    "type": "string",
                    "url": null,
                    "word": "Amount",
                    "x1": 948,
                    "x2": 988
                },
                {
                    "type": "string",
                    "url": null,
                    "word": "Rate%",
                    "x1": 1000,
                    "x2": 1031
                },
                {
                    "type": "string",
                    "url": null,
                    "word": "Amount",
                    "x1": 1042,
                    "x2": 1083
                }
            ],
            "y": 354
        },
        {
            "line_index": 15,
            "number_of_words": 11,
            "words": [
                {
                    "type": "number",
                    "url": null,
                    "word": "1",
                    "x1": 57,
                    "x2": 60
                },
                {
                    "type": "string",
                    "url": null,
                    "word": "COPPERPIPELOT",
                    "x1": 74,
                    "x2": 155
                },
                {
                    "type": "number",
                    "url": null,
                    "word": "7411",
                    "x1": 366,
                    "x2": 390
                },
                {
                    "type": "string",
                    "url": null,
                    "word": "1LOT",
                    "x1": 479,
                    "x2": 504
                },
                {
                    "type": "number",
                    "url": null,
                    "word": "1200.00",
                    "x1": 524,
                    "x2": 561
                },
                {
                    "type": "number",
                    "url": null,
                    "word": "7200.00",
                    "x1": 603,
                    "x2": 639
                },
                {
                    "type": "number",
                    "url": null,
                    "word": "7200.00",
                    "x1": 766,
                    "x2": 804
                },
                {
                    "type": "number",
                    "url": null,
                    "word": "9.00",
                    "x1": 820,
                    "x2": 839
                },
                {
                    "type": "number",
                    "url": null,
                    "word": "648.00",
                    "x1": 870,
                    "x2": 901
                },
                {
                    "type": "number",
                    "url": null,
                    "word": "9.00",
                    "x1": 917,
                    "x2": 935
                },
                {
                    "type": "number",
                    "url": null,
                    "word": "648.00",
                    "x1": 961,
                    "x2": 993
                }
            ],
            "y": 372
        },
        {
            "line_index": 16,
            "number_of_words": 12,
            "words": [
                {
                    "type": "number",
                    "url": null,
                    "word": "2",
                    "x1": 57,
                    "x2": 60
                },
                {
                    "type": "string",
                    "url": null,
                    "word": "ELECTRICALS",
                    "x1": 75,
                    "x2": 133
                },
                {
                    "type": "string",
                    "url": null,
                    "word": "CABLE",
                    "x1": 139,
                    "x2": 166
                },
                {
                    "type": "number",
                    "url": null,
                    "word": "8544",
                    "x1": 365,
                    "x2": 387
                },
                {
                    "type": "string",
                    "url": null,
                    "word": "MTR",
                    "x1": 478,
                    "x2": 499
                },
                {
                    "type": "number",
                    "url": null,
                    "word": "120.00",
                    "x1": 528,
                    "x2": 556
                },
                {
                    "type": "number",
                    "url": null,
                    "word": "840.00",
                    "x1": 608,
                    "x2": 640
                },
                {
                    "type": "number",
                    "url": null,
                    "word": "840.00",
                    "x1": 772,
                    "x2": 803
                },
                {
                    "type": "number",
                    "url": null,
                    "word": "9.00",
                    "x1": 821,
                    "x2": 839
                },
                {
                    "type": "number",
                    "url": null,
                    "word": "75.60",
                    "x1": 876,
                    "x2": 902
                },
                {
                    "type": "number",
                    "url": null,
                    "word": "9.00",
                    "x1": 917,
                    "x2": 935
                },
                {
                    "type": "number",
                    "url": null,
                    "word": "75.60",
                    "x1": 969,
                    "x2": 995
                }
            ],
            "y": 391
        },
        {
            "line_index": 17,
            "number_of_words": 12,
            "words": [
                {
                    "type": "number",
                    "url": null,
                    "word": "3",
                    "x1": 57,
                    "x2": 60
                },
                {
                    "type": "string",
                    "url": null,
                    "word": "PVCDRAIN",
                    "x1": 73,
                    "x2": 120
                },
                {
                    "type": "string",
                    "url": null,
                    "word": "PIPES",
                    "x1": 129,
                    "x2": 154
                },
                {
                    "type": "number",
                    "url": null,
                    "word": "3917",
                    "x1": 366,
                    "x2": 388
                },
                {
                    "type": "string",
                    "url": null,
                    "word": "RFT",
                    "x1": 481,
                    "x2": 497
                },
                {
                    "type": "number",
                    "url": null,
                    "word": "120.00",
                    "x1": 529,
                    "x2": 556
                },
                {
                    "type": "number",
                    "url": null,
                    "word": "480.00",
                    "x1": 609,
                    "x2": 640
                },
                {
                    "type": "number",
                    "url": null,
                    "word": "480.00",
                    "x1": 774,
                    "x2": 805
                },
                {
                    "type": "number",
                    "url": null,
                    "word": "9.00",
                    "x1": 821,
                    "x2": 839
                },
                {
                    "type": "number",
                    "url": null,
                    "word": "43.20",
                    "x1": 877,
                    "x2": 902
                },
                {
                    "type": "number",
                    "url": null,
                    "word": "9.00",
                    "x1": 917,
                    "x2": 933
                },
                {
                    "type": "number",
                    "url": null,
                    "word": "43.20",
                    "x1": 970,
                    "x2": 992
                }
            ],
            "y": 409
        },
        {
            "line_index": 18,
            "number_of_words": 1,
            "words": [
                {
                    "type": "string",
                    "url": "http://bizlem.io/PurchaseOrderProcessing#Tax_Code",
                    "word": "TAX CODE",
                    "x1": 186,
                    "x2": 241
                }
            ],
            "y": 466
        },
        {
            "line_index": 19,
            "number_of_words": 2,
            "words": [
                {
                    "type": "string",
                    "url": null,
                    "word": "ITC",
                    "x1": 176,
                    "x2": 192
                },
                {
                    "type": "string",
                    "url": null,
                    "word": "ELIGIBLE",
                    "x1": 200,
                    "x2": 251
                }
            ],
            "y": 477
        },
        {
            "line_index": 20,
            "number_of_words": 3,
            "words": [
                {
                    "type": "string",
                    "url": null,
                    "word": "ITC",
                    "x1": 161,
                    "x2": 177
                },
                {
                    "type": "string",
                    "url": null,
                    "word": "NOTELIGIBLE",
                    "x1": 183,
                    "x2": 265
                },
                {
                    "type": "string",
                    "url": null,
                    "word": "N2000HZ118-19-0156338",
                    "x1": 401,
                    "x2": 540
                }
            ],
            "y": 489
        },
        {
            "line_index": 21,
            "number_of_words": 1,
            "words": [
                {
                    "type": "string",
                    "url": null,
                    "word": "GSTPAYABLE",
                    "x1": 174,
                    "x2": 252
                }
            ],
            "y": 501
        },
        {
            "line_index": 22,
            "number_of_words": 1,
            "words": [
                {
                    "type": "string",
                    "url": null,
                    "word": "SSTEXGSTEXEMPTED",
                    "x1": 165,
                    "x2": 259
                }
            ],
            "y": 514
        },
        {
            "line_index": 23,
            "number_of_words": 1,
            "words": [
                {
                    "type": "string",
                    "url": null,
                    "word": "Led",
                    "x1": 111,
                    "x2": 132
                }
            ],
            "y": 529
        },
        {
            "line_index": 24,
            "number_of_words": 9,
            "words": [
                {
                    "type": "string",
                    "url": null,
                    "word": "PAYMENTDUEON",
                    "x1": 49,
                    "x2": 146
                },
                {
                    "type": "string",
                    "url": null,
                    "word": ":28/11/2018",
                    "x1": 154,
                    "x2": 223
                },
                {
                    "type": "string",
                    "url": "http://bizlem.io/PurchaseOrderProcessing#GrossTotal",
                    "word": "Total:",
                    "x1": 369,
                    "x2": 403
                },
                {
                    "type": "number",
                    "url": null,
                    "word": "17.00",
                    "x1": 426,
                    "x2": 451
                },
                {
                    "type": "number",
                    "url": null,
                    "word": "8520.00",
                    "x1": 599,
                    "x2": 639
                },
                {
                    "type": "number",
                    "url": null,
                    "word": "0.00",
                    "x1": 712,
                    "x2": 735
                },
                {
                    "type": "number",
                    "url": null,
                    "word": "8520.00",
                    "x1": 764,
                    "x2": 804
                },
                {
                    "type": "number",
                    "url": null,
                    "word": "766.80",
                    "x1": 867,
                    "x2": 902
                },
                {
                    "type": "number",
                    "url": null,
                    "word": "766.80",
                    "x1": 960,
                    "x2": 994
                }
            ],
            "y": 601
        },
        {
            "line_index": 25,
            "number_of_words": 6,
            "words": [
                {
                    "type": "string",
                    "url": null,
                    "word": "Remarks:PO",
                    "x1": 48,
                    "x2": 123
                },
                {
                    "type": "string",
                    "url": null,
                    "word": "NO-NO-4400127142,DATE--20.11.2018,CHALLAN",
                    "x1": 130,
                    "x2": 418
                },
                {
                    "type": "string",
                    "url": null,
                    "word": "NO-165,DATE-28.11.2018",
                    "x1": 424,
                    "x2": 571
                },
                {
                    "type": "string",
                    "url": null,
                    "word": "ROUNDED",
                    "x1": 936,
                    "x2": 983
                },
                {
                    "type": "string",
                    "url": null,
                    "word": "UP:",
                    "x1": 990,
                    "x2": 1008
                },
                {
                    "type": "number",
                    "url": null,
                    "word": "0.40",
                    "x1": 1069,
                    "x2": 1087
                }
            ],
            "y": 619
        },
        {
            "line_index": 26,
            "number_of_words": 6,
            "words": [
                {
                    "type": "string",
                    "url": null,
                    "word": "TotalInvolve",
                    "x1": 48,
                    "x2": 109
                },
                {
                    "type": "string",
                    "url": null,
                    "word": "ValueInWords:Tenthousandfiftyfouronly",
                    "x1": 115,
                    "x2": 331
                },
                {
                    "type": "number",
                    "url": null,
                    "word": "1000",
                    "x1": 644,
                    "x2": 697
                },
                {
                    "type": "number",
                    "url": null,
                    "word": "511652",
                    "x1": 720,
                    "x2": 804
                },
                {
                    "type": "string",
                    "url": "http://bizlem.io/PurchaseOrderProcessing#GrossTotal",
                    "word": "GRAND TOTAL:",
                    "x1": 931,
                    "x2": 1009
                },
                {
                    "type": "number",
                    "url": null,
                    "word": "10054.00",
                    "x1": 1041,
                    "x2": 1086
                }
            ],
            "y": 638
        },
        {
            "line_index": 27,
            "number_of_words": 7,
            "words": [
                {
                    "type": "string",
                    "url": null,
                    "word": "Amountoftax",
                    "x1": 48,
                    "x2": 118
                },
                {
                    "type": "string",
                    "url": null,
                    "word": "subject",
                    "x1": 124,
                    "x2": 155
                },
                {
                    "type": "string",
                    "url": null,
                    "word": "to",
                    "x1": 162,
                    "x2": 168
                },
                {
                    "type": "string",
                    "url": null,
                    "word": "reverseCharges:N.A.",
                    "x1": 174,
                    "x2": 284
                },
                {
                    "type": "string",
                    "url": null,
                    "word": "By:",
                    "x1": 471,
                    "x2": 490
                },
                {
                    "type": "string",
                    "url": null,
                    "word": "MUKUND",
                    "x1": 498,
                    "x2": 543
                },
                {
                    "type": "string",
                    "url": null,
                    "word": "SIR",
                    "x1": 551,
                    "x2": 562
                }
            ],
            "y": 653
        },
        {
            "line_index": 28,
            "number_of_words": 6,
            "words": [
                {
                    "type": "string",
                    "url": null,
                    "word": "TermsOfSale",
                    "x1": 50,
                    "x2": 122
                },
                {
                    "type": "string",
                    "url": null,
                    "word": ":",
                    "x1": 128,
                    "x2": 130
                },
                {
                    "type": "string",
                    "url": null,
                    "word": "E.&",
                    "x1": 404,
                    "x2": 421
                },
                {
                    "type": "string",
                    "url": null,
                    "word": "0.E.",
                    "x1": 430,
                    "x2": 454
                },
                {
                    "type": "string",
                    "url": null,
                    "word": "FOR,",
                    "x1": 769,
                    "x2": 795
                },
                {
                    "type": "string",
                    "url": null,
                    "word": "CoolLineAgencyPvt.Ltd.",
                    "x1": 805,
                    "x2": 940
                }
            ],
            "y": 674
        },
        {
            "line_index": 29,
            "number_of_words": 2,
            "words": [
                {
                    "type": "string",
                    "url": null,
                    "word": "(1)Anycomplaintofgoodsshouldbeloggedtouswithin",
                    "x1": 49,
                    "x2": 291
                },
                {
                    "type": "string",
                    "url": null,
                    "word": "2days.",
                    "x1": 297,
                    "x2": 325
                }
            ],
            "y": 688
        },
        {
            "line_index": 30,
            "number_of_words": 5,
            "words": [
                {
                    "type": "string",
                    "url": null,
                    "word": "(2)Interest",
                    "x1": 48,
                    "x2": 95
                },
                {
                    "type": "string",
                    "url": null,
                    "word": "@",
                    "x1": 101,
                    "x2": 103
                },
                {
                    "type": "string",
                    "url": null,
                    "word": "24%PA,willbechargedifbillisnotpaidwithin",
                    "x1": 111,
                    "x2": 312
                },
                {
                    "type": "number",
                    "url": null,
                    "word": "7",
                    "x1": 318,
                    "x2": 320
                },
                {
                    "type": "string",
                    "url": null,
                    "word": "days.",
                    "x1": 326,
                    "x2": 347
                }
            ],
            "y": 702
        },
        {
            "line_index": 31,
            "number_of_words": 2,
            "words": [
                {
                    "type": "string",
                    "url": null,
                    "word": "(3)Chequebouncing",
                    "x1": 48,
                    "x2": 135
                },
                {
                    "type": "string",
                    "url": null,
                    "word": "chargeswillbeRS.500/-perchequeperbounce.",
                    "x1": 141,
                    "x2": 349
                }
            ],
            "y": 716
        },
        {
            "line_index": 32,
            "number_of_words": 2,
            "words": [
                {
                    "type": "string",
                    "url": null,
                    "word": "(4)Paymenttobemadebychequeordraftshould",
                    "x1": 48,
                    "x2": 262
                },
                {
                    "type": "string",
                    "url": null,
                    "word": "drawninfavourofCoollineAgencyPvt.Ltd.",
                    "x1": 268,
                    "x2": 459
                }
            ],
            "y": 729
        },
        {
            "line_index": 33,
            "number_of_words": 3,
            "words": [
                {
                    "type": "string",
                    "url": null,
                    "word": "Only",
                    "x1": 48,
                    "x2": 67
                },
                {
                    "type": "string",
                    "url": null,
                    "word": "Authorised",
                    "x1": 793,
                    "x2": 844
                },
                {
                    "type": "string",
                    "url": null,
                    "word": "Signatory",
                    "x1": 853,
                    "x2": 896
                }
            ],
            "y": 742
        },
        {
            "line_index": 34,
            "number_of_words": 3,
            "words": [
                {
                    "type": "string",
                    "url": null,
                    "word": "(5)Subjectto",
                    "x1": 48,
                    "x2": 103
                },
                {
                    "type": "string",
                    "url": null,
                    "word": "suratjurisdiction",
                    "x1": 109,
                    "x2": 177
                },
                {
                    "type": "string",
                    "url": null,
                    "word": "only.",
                    "x1": 184,
                    "x2": 202
                }
            ],
            "y": 755
        }
    ],
    "header_info": {
        "Rules": {
            "http://bizlem.io/PurchaseOrderProcessing#GSTIN": {
                "Date": [],
                "Integer": [
                    {
                        "Integer_Length": 2,
                        "Integer_Line_OffSet": 0,
                        "Integer_Value": "24",
                        "Integer_X1 OffSet": 33,
                        "Integer_X1-X2 OffSet": 8,
                        "Integer_X2-X1 OffSet": 153,
                        "Integer_X2-X2 OffSet": 128,
                        "Integer_Y OffSet": 0
                    },
                    {
                        "Integer_Length": 2,
                        "Integer_Line_OffSet": 0,
                        "Integer_Value": "24",
                        "Integer_X1 OffSet": 448,
                        "Integer_X1-X2 OffSet": 423,
                        "Integer_X2-X1 OffSet": 538,
                        "Integer_X2-X2 OffSet": 513,
                        "Integer_Y OffSet": 0
                    },
                    {
                        "Integer_Length": 2,
                        "Integer_Line_OffSet": 0,
                        "Integer_Value": "24",
                        "Integer_X1 OffSet": 73,
                        "Integer_X1-X2 OffSet": 45,
                        "Integer_X2-X1 OffSet": 176,
                        "Integer_X2-X2 OffSet": 148,
                        "Integer_Y OffSet": 0
                    },
                    {
                        "Integer_Length": 6,
                        "Integer_Line_OffSet": 0,
                        "Integer_Value": "125206",
                        "Integer_X1 OffSet": 345,
                        "Integer_X1-X2 OffSet": 317,
                        "Integer_X2-X1 OffSet": 431,
                        "Integer_X2-X2 OffSet": 403,
                        "Integer_Y OffSet": 0
                    },
                    {
                        "Integer_Length": 3,
                        "Integer_Line_OffSet": 0,
                        "Integer_Value": "101",
                        "Integer_X1 OffSet": 544,
                        "Integer_X1-X2 OffSet": 516,
                        "Integer_X2-X1 OffSet": 588,
                        "Integer_X2-X2 OffSet": 560,
                        "Integer_Y OffSet": 0
                    },
                    {
                        "Integer_Length": 2,
                        "Integer_Line_OffSet": 0,
                        "Integer_Value": "24",
                        "Integer_X1 OffSet": 874,
                        "Integer_X1-X2 OffSet": 846,
                        "Integer_X2-X1 OffSet": 1012,
                        "Integer_X2-X2 OffSet": 984,
                        "Integer_Y OffSet": 0
                    },
                    {
                        "Integer_Length": 2,
                        "Integer_Line_OffSet": 6,
                        "Integer_Value": "27",
                        "Integer_X1 OffSet": 3,
                        "Integer_X1-X2 OffSet": -25,
                        "Integer_X2-X1 OffSet": 15,
                        "Integer_X2-X2 OffSet": -13,
                        "Integer_Y OffSet": 109
                    },
                    {
                        "Integer_Length": 2,
                        "Integer_Line_OffSet": 9,
                        "Integer_Value": "24",
                        "Integer_X1 OffSet": 5,
                        "Integer_X1-X2 OffSet": -23,
                        "Integer_X2-X1 OffSet": 105,
                        "Integer_X2-X2 OffSet": 77,
                        "Integer_Y OffSet": 168
                    }
                ],
                "Regex": [
                    {
                        "Regex_Id": "PAN",
                        "Regex_Length": 10,
                        "Regex_Line_OffSet": 0,
                        "Regex_Type": "Pan",
                        "Regex_Value": "AAACE1741P",
                        "Regex_X1 OffSet": 33,
                        "Regex_X1-X2 OffSet": 8,
                        "Regex_X2-X1 OffSet": 153,
                        "Regex_X2-X2 OffSet": 128,
                        "Regex_Y OffSet": 0
                    },
                    {
                        "Regex_Id": "GSTIN",
                        "Regex_Length": 15,
                        "Regex_Line_OffSet": 0,
                        "Regex_Type": "GSTIN",
                        "Regex_Value": "24AAACE1741P1ZN",
                        "Regex_X1 OffSet": 33,
                        "Regex_X1-X2 OffSet": 8,
                        "Regex_X2-X1 OffSet": 153,
                        "Regex_X2-X2 OffSet": 128,
                        "Regex_Y OffSet": 0
                    },
                    {
                        "Regex_Id": "dg_4",
                        "Regex_Length": 4,
                        "Regex_Line_OffSet": 0,
                        "Regex_Type": "DIGITS",
                        "Regex_Value": "1741",
                        "Regex_X1 OffSet": 33,
                        "Regex_X1-X2 OffSet": 8,
                        "Regex_X2-X1 OffSet": 153,
                        "Regex_X2-X2 OffSet": 128,
                        "Regex_Y OffSet": 0
                    },
                    {
                        "Regex_Id": "DOC_11",
                        "Regex_Length": 9,
                        "Regex_Line_OffSet": 0,
                        "Regex_Type": "Document",
                        "Regex_Value": "AAACE1741",
                        "Regex_X1 OffSet": 33,
                        "Regex_X1-X2 OffSet": 8,
                        "Regex_X2-X1 OffSet": 153,
                        "Regex_X2-X2 OffSet": 128,
                        "Regex_Y OffSet": 0
                    },
                    {
                        "Regex_Id": "DOC_12",
                        "Regex_Length": 9,
                        "Regex_Line_OffSet": 0,
                        "Regex_Type": "Document",
                        "Regex_Value": "AAACE1741",
                        "Regex_X1 OffSet": 33,
                        "Regex_X1-X2 OffSet": 8,
                        "Regex_X2-X1 OffSet": 153,
                        "Regex_X2-X2 OffSet": 128,
                        "Regex_Y OffSet": 0
                    },
                    {
                        "Regex_Id": "DOC_49",
                        "Regex_Length": 9,
                        "Regex_Line_OffSet": 0,
                        "Regex_Type": "Document",
                        "Regex_Value": "AAACE1741",
                        "Regex_X1 OffSet": 33,
                        "Regex_X1-X2 OffSet": 8,
                        "Regex_X2-X1 OffSet": 153,
                        "Regex_X2-X2 OffSet": 128,
                        "Regex_Y OffSet": 0
                    },
                    {
                        "Regex_Id": "PAN",
                        "Regex_Length": 10,
                        "Regex_Line_OffSet": 0,
                        "Regex_Type": "Pan",
                        "Regex_Value": "AAACE1741P",
                        "Regex_X1 OffSet": 448,
                        "Regex_X1-X2 OffSet": 423,
                        "Regex_X2-X1 OffSet": 538,
                        "Regex_X2-X2 OffSet": 513,
                        "Regex_Y OffSet": 0
                    },
                    {
                        "Regex_Id": "GSTIN",
                        "Regex_Length": 15,
                        "Regex_Line_OffSet": 0,
                        "Regex_Type": "GSTIN",
                        "Regex_Value": "24AAACE1741P1ZN",
                        "Regex_X1 OffSet": 448,
                        "Regex_X1-X2 OffSet": 423,
                        "Regex_X2-X1 OffSet": 538,
                        "Regex_X2-X2 OffSet": 513,
                        "Regex_Y OffSet": 0
                    },
                    {
                        "Regex_Id": "dg_4",
                        "Regex_Length": 4,
                        "Regex_Line_OffSet": 0,
                        "Regex_Type": "DIGITS",
                        "Regex_Value": "1741",
                        "Regex_X1 OffSet": 448,
                        "Regex_X1-X2 OffSet": 423,
                        "Regex_X2-X1 OffSet": 538,
                        "Regex_X2-X2 OffSet": 513,
                        "Regex_Y OffSet": 0
                    },
                    {
                        "Regex_Id": "DOC_11",
                        "Regex_Length": 9,
                        "Regex_Line_OffSet": 0,
                        "Regex_Type": "Document",
                        "Regex_Value": "AAACE1741",
                        "Regex_X1 OffSet": 448,
                        "Regex_X1-X2 OffSet": 423,
                        "Regex_X2-X1 OffSet": 538,
                        "Regex_X2-X2 OffSet": 513,
                        "Regex_Y OffSet": 0
                    },
                    {
                        "Regex_Id": "DOC_12",
                        "Regex_Length": 9,
                        "Regex_Line_OffSet": 0,
                        "Regex_Type": "Document",
                        "Regex_Value": "AAACE1741",
                        "Regex_X1 OffSet": 448,
                        "Regex_X1-X2 OffSet": 423,
                        "Regex_X2-X1 OffSet": 538,
                        "Regex_X2-X2 OffSet": 513,
                        "Regex_Y OffSet": 0
                    },
                    {
                        "Regex_Id": "DOC_49",
                        "Regex_Length": 9,
                        "Regex_Line_OffSet": 0,
                        "Regex_Type": "Document",
                        "Regex_Value": "AAACE1741",
                        "Regex_X1 OffSet": 448,
                        "Regex_X1-X2 OffSet": 423,
                        "Regex_X2-X1 OffSet": 538,
                        "Regex_X2-X2 OffSet": 513,
                        "Regex_Y OffSet": 0
                    },
                    {
                        "Regex_Id": "PAN",
                        "Regex_Length": 10,
                        "Regex_Line_OffSet": 0,
                        "Regex_Type": "Pan",
                        "Regex_Value": "AADCC8528K",
                        "Regex_X1 OffSet": 73,
                        "Regex_X1-X2 OffSet": 45,
                        "Regex_X2-X1 OffSet": 176,
                        "Regex_X2-X2 OffSet": 148,
                        "Regex_Y OffSet": 0
                    },
                    {
                        "Regex_Id": "GSTIN",
                        "Regex_Length": 15,
                        "Regex_Line_OffSet": 0,
                        "Regex_Type": "GSTIN",
                        "Regex_Value": "24AADCC8528K1ZH",
                        "Regex_X1 OffSet": 73,
                        "Regex_X1-X2 OffSet": 45,
                        "Regex_X2-X1 OffSet": 176,
                        "Regex_X2-X2 OffSet": 148,
                        "Regex_Y OffSet": 0
                    },
                    {
                        "Regex_Id": "dg_4",
                        "Regex_Length": 4,
                        "Regex_Line_OffSet": 0,
                        "Regex_Type": "DIGITS",
                        "Regex_Value": "8528",
                        "Regex_X1 OffSet": 73,
                        "Regex_X1-X2 OffSet": 45,
                        "Regex_X2-X1 OffSet": 176,
                        "Regex_X2-X2 OffSet": 148,
                        "Regex_Y OffSet": 0
                    },
                    {
                        "Regex_Id": "DOC_11",
                        "Regex_Length": 9,
                        "Regex_Line_OffSet": 0,
                        "Regex_Type": "Document",
                        "Regex_Value": "AADCC8528",
                        "Regex_X1 OffSet": 73,
                        "Regex_X1-X2 OffSet": 45,
                        "Regex_X2-X1 OffSet": 176,
                        "Regex_X2-X2 OffSet": 148,
                        "Regex_Y OffSet": 0
                    },
                    {
                        "Regex_Id": "DOC_12",
                        "Regex_Length": 9,
                        "Regex_Line_OffSet": 0,
                        "Regex_Type": "Document",
                        "Regex_Value": "AADCC8528",
                        "Regex_X1 OffSet": 73,
                        "Regex_X1-X2 OffSet": 45,
                        "Regex_X2-X1 OffSet": 176,
                        "Regex_X2-X2 OffSet": 148,
                        "Regex_Y OffSet": 0
                    },
                    {
                        "Regex_Id": "DOC_49",
                        "Regex_Length": 9,
                        "Regex_Line_OffSet": 0,
                        "Regex_Type": "Document",
                        "Regex_Value": "AADCC8528",
                        "Regex_X1 OffSet": 73,
                        "Regex_X1-X2 OffSet": 45,
                        "Regex_X2-X1 OffSet": 176,
                        "Regex_X2-X2 OffSet": 148,
                        "Regex_Y OffSet": 0
                    },
                    {
                        "Regex_Id": "dg_6",
                        "Regex_Length": 6,
                        "Regex_Line_OffSet": 0,
                        "Regex_Type": "DIGITS",
                        "Regex_Value": "125206",
                        "Regex_X1 OffSet": 345,
                        "Regex_X1-X2 OffSet": 317,
                        "Regex_X2-X1 OffSet": 431,
                        "Regex_X2-X2 OffSet": 403,
                        "Regex_Y OffSet": 0
                    },
                    {
                        "Regex_Id": "dg_3",
                        "Regex_Length": 3,
                        "Regex_Line_OffSet": 0,
                        "Regex_Type": "DIGITS",
                        "Regex_Value": "101",
                        "Regex_X1 OffSet": 544,
                        "Regex_X1-X2 OffSet": 516,
                        "Regex_X2-X1 OffSet": 588,
                        "Regex_X2-X2 OffSet": 560,
                        "Regex_Y OffSet": 0
                    },
                    {
                        "Regex_Id": "DOC_43",
                        "Regex_Length": 7,
                        "Regex_Line_OffSet": 0,
                        "Regex_Type": "Document",
                        "Regex_Value": "101-103",
                        "Regex_X1 OffSet": 544,
                        "Regex_X1-X2 OffSet": 516,
                        "Regex_X2-X1 OffSet": 588,
                        "Regex_X2-X2 OffSet": 560,
                        "Regex_Y OffSet": 0
                    },
                    {
                        "Regex_Id": "dg_2",
                        "Regex_Length": 2,
                        "Regex_Line_OffSet": 0,
                        "Regex_Type": "DIGITS",
                        "Regex_Value": "24",
                        "Regex_X1 OffSet": 874,
                        "Regex_X1-X2 OffSet": 846,
                        "Regex_X2-X1 OffSet": 1012,
                        "Regex_X2-X2 OffSet": 984,
                        "Regex_Y OffSet": 0
                    },
                    {
                        "Regex_Id": "DOC_8",
                        "Regex_Length": 8,
                        "Regex_Line_OffSet": 0,
                        "Regex_Type": "Document",
                        "Regex_Value": "JARAT-24",
                        "Regex_X1 OffSet": 874,
                        "Regex_X1-X2 OffSet": 846,
                        "Regex_X2-X1 OffSet": 1012,
                        "Regex_X2-X2 OffSet": 984,
                        "Regex_Y OffSet": 0
                    },
                    {
                        "Regex_Id": "DOC_9",
                        "Regex_Length": 10,
                        "Regex_Line_OffSet": 0,
                        "Regex_Type": "Document",
                        "Regex_Value": "GUJARAT-24",
                        "Regex_X1 OffSet": 874,
                        "Regex_X1-X2 OffSet": 846,
                        "Regex_X2-X1 OffSet": 1012,
                        "Regex_X2-X2 OffSet": 984,
                        "Regex_Y OffSet": 0
                    },
                    {
                        "Regex_Id": "DOC_13",
                        "Regex_Length": 8,
                        "Regex_Line_OffSet": 0,
                        "Regex_Type": "Document",
                        "Regex_Value": "JARAT-24",
                        "Regex_X1 OffSet": 874,
                        "Regex_X1-X2 OffSet": 846,
                        "Regex_X2-X1 OffSet": 1012,
                        "Regex_X2-X2 OffSet": 984,
                        "Regex_Y OffSet": 0
                    },
                    {
                        "Regex_Id": "DOC_14",
                        "Regex_Length": 4,
                        "Regex_Line_OffSet": 0,
                        "Regex_Type": "Document",
                        "Regex_Value": "T-24",
                        "Regex_X1 OffSet": 874,
                        "Regex_X1-X2 OffSet": 846,
                        "Regex_X2-X1 OffSet": 1012,
                        "Regex_X2-X2 OffSet": 984,
                        "Regex_Y OffSet": 0
                    },
                    {
                        "Regex_Id": "dg_2",
                        "Regex_Length": 2,
                        "Regex_Line_OffSet": 6,
                        "Regex_Type": "DIGITS",
                        "Regex_Value": "27",
                        "Regex_X1 OffSet": 3,
                        "Regex_X1-X2 OffSet": -25,
                        "Regex_X2-X1 OffSet": 15,
                        "Regex_X2-X2 OffSet": -13,
                        "Regex_Y OffSet": 109
                    },
                    {
                        "Regex_Id": "dg_2",
                        "Regex_Length": 2,
                        "Regex_Line_OffSet": 9,
                        "Regex_Type": "DIGITS",
                        "Regex_Value": "24",
                        "Regex_X1 OffSet": 5,
                        "Regex_X1-X2 OffSet": -23,
                        "Regex_X2-X1 OffSet": 105,
                        "Regex_X2-X2 OffSet": 77,
                        "Regex_Y OffSet": 168
                    },
                    {
                        "Regex_Id": "DOC_8",
                        "Regex_Length": 8,
                        "Regex_Line_OffSet": 9,
                        "Regex_Type": "Document",
                        "Regex_Value": "JARAT-24",
                        "Regex_X1 OffSet": 5,
                        "Regex_X1-X2 OffSet": -23,
                        "Regex_X2-X1 OffSet": 105,
                        "Regex_X2-X2 OffSet": 77,
                        "Regex_Y OffSet": 168
                    },
                    {
                        "Regex_Id": "DOC_9",
                        "Regex_Length": 10,
                        "Regex_Line_OffSet": 9,
                        "Regex_Type": "Document",
                        "Regex_Value": "GUJARAT-24",
                        "Regex_X1 OffSet": 5,
                        "Regex_X1-X2 OffSet": -23,
                        "Regex_X2-X1 OffSet": 105,
                        "Regex_X2-X2 OffSet": 77,
                        "Regex_Y OffSet": 168
                    },
                    {
                        "Regex_Id": "DOC_13",
                        "Regex_Length": 8,
                        "Regex_Line_OffSet": 9,
                        "Regex_Type": "Document",
                        "Regex_Value": "JARAT-24",
                        "Regex_X1 OffSet": 5,
                        "Regex_X1-X2 OffSet": -23,
                        "Regex_X2-X1 OffSet": 105,
                        "Regex_X2-X2 OffSet": 77,
                        "Regex_Y OffSet": 168
                    },
                    {
                        "Regex_Id": "DOC_14",
                        "Regex_Length": 4,
                        "Regex_Line_OffSet": 9,
                        "Regex_Type": "Document",
                        "Regex_Value": "T-24",
                        "Regex_X1 OffSet": 5,
                        "Regex_X1-X2 OffSet": -23,
                        "Regex_X2-X1 OffSet": 105,
                        "Regex_X2-X2 OffSet": 77,
                        "Regex_Y OffSet": 168
                    }
                ],
                "UKS": []
            }
        },
        "flatten_api": {
            "input": [
                {
                    "H1": " ",
                    "H2": " ",
                    "H3": "1.Gst",
                    "H4": "Amount"
                },
                {
                    "H1": " ",
                    "H2": " ",
                    "H3": " ",
                    "H4": "Rate%"
                },
                {
                    "H1": " ",
                    "H2": " ",
                    "H3": "C.Gst",
                    "H4": "Amount"
                },
                {
                    "H1": " ",
                    "H2": " ",
                    "H3": " ",
                    "H4": "Rate"
                },
                {
                    "H1": " ",
                    "H2": " ",
                    "H3": "S.Gst",
                    "H4": "Amount"
                },
                {
                    "H1": " ",
                    "H2": " ",
                    "H3": " ",
                    "H4": "Rate"
                },
                {
                    "H1": " ",
                    "H2": " ",
                    "H3": "Taxable",
                    "H4": "Value"
                },
                {
                    "H1": " ",
                    "H2": " ",
                    "H3": "Total Discount",
                    "H4": "Amount"
                },
                {
                    "H1": " ",
                    "H2": " ",
                    "H3": "Unit Rate",
                    "H4": " "
                },
                {
                    "H1": " ",
                    "H2": " ",
                    "H3": "Qty.",
                    "H4": " "
                },
                {
                    "H1": " ",
                    "H2": " ",
                    "H3": "Hsn/Sac",
                    "H4": " "
                },
                {
                    "H1": " ",
                    "H2": " ",
                    "H3": "Description",
                    "H4": " "
                },
                {
                    "H1": " ",
                    "H2": " ",
                    "H3": "No.",
                    "H4": " "
                }
            ],
            "output": [
                [
                    "http://bizlem.io/PurchaseOrderProcessing#GSTPercentage"
                ],
                [
                    "http://bizlem.io/PurchaseOrderProcessing#Rate"
                ],
                [
                    "C.Gst Amount"
                ],
                [
                    "http://bizlem.io/PurchaseOrderProcessing#Rate"
                ],
                [
                    "S.Gst Amount"
                ],
                [
                    "http://bizlem.io/PurchaseOrderProcessing#Rate"
                ],
                [
                    "http://bizlem.io/PurchaseOrderProcessing#TaxableAmount"
                ],
                [
                    "http://bizlem.io/PurchaseOrderProcessing#TOTAL"
                ],
                [
                    "http://bizlem.io/PurchaseOrderProcessing#Unit"
                ],
                [
                    "http://bizlem.io/PurchaseOrderProcessing#Quantity"
                ],
                [
                    "http://bizlem.io/PurchaseOrderProcessing#HSN/SAC"
                ],
                [
                    "http://bizlem.io/PurchaseOrderProcessing#DescriptionOfServices"
                ],
                [
                    "http://bizlem.io/PurchaseOrderProcessing#SRNO"
                ]
            ]
        },
        "header_line_index": [
            13,
            14
        ],
        "header_position": [
            {
                "header": "http://bizlem.io/PurchaseOrderProcessing#SRNO",
                "line_index": 13,
                "x1": 43,
                "x2": 70,
                "y": 333
            },
            {
                "header": "http://bizlem.io/PurchaseOrderProcessing#DescriptionOfServices",
                "line_index": 13,
                "x1": 71,
                "x2": 350,
                "y": 333
            },
            {
                "header": "http://bizlem.io/PurchaseOrderProcessing#HSN/SAC",
                "line_index": 13,
                "x1": 351,
                "x2": 406,
                "y": 333
            },
            {
                "header": "http://bizlem.io/PurchaseOrderProcessing#Quantity",
                "line_index": 13,
                "x1": 421,
                "x2": 455,
                "y": 333
            },
            {
                "header": "http://bizlem.io/PurchaseOrderProcessing#Unit",
                "line_index": 13,
                "x1": 474,
                "x2": 557,
                "y": 333
            },
            {
                "header": "http://bizlem.io/PurchaseOrderProcessing#TOTAL",
                "line_index": 14,
                "x1": 608,
                "x2": 738,
                "y": 354
            },
            {
                "header": "http://bizlem.io/PurchaseOrderProcessing#TaxableAmount",
                "line_index": 13,
                "x1": 746,
                "x2": 797,
                "y": 333
            },
            {
                "header": "http://bizlem.io/PurchaseOrderProcessing#Rate",
                "line_index": 14,
                "x1": 796,
                "x2": 846,
                "y": 354
            },
            {
                "header": "S.Gst Amount",
                "line_index": 14,
                "x1": 832,
                "x2": 905,
                "y": 354
            },
            {
                "header": "http://bizlem.io/PurchaseOrderProcessing#Rate",
                "line_index": 14,
                "x1": 893,
                "x2": 943,
                "y": 354
            },
            {
                "header": "C.Gst Amount",
                "line_index": 14,
                "x1": 929,
                "x2": 996,
                "y": 354
            },
            {
                "header": "http://bizlem.io/PurchaseOrderProcessing#Rate",
                "line_index": 14,
                "x1": 985,
                "x2": 1046,
                "y": 354
            },
            {
                "header": "http://bizlem.io/PurchaseOrderProcessing#GSTPercentage",
                "line_index": 14,
                "x1": 1019,
                "x2": 1087,
                "y": 354
            }
        ],
        "positions": [
            {
                "line_index": 13,
                "y": 333
            },
            {
                "line_index": 14,
                "y": 354
            }
        ],
        "start_line_index": 14,
        "stop_line_index": 24,
        "template_api": {
            "input": {
                "column1": "http://bizlem.io/PurchaseOrderProcessing#SRNO",
                "column10": "http://bizlem.io/PurchaseOrderProcessing#Rate",
                "column11": "C.Gst Amount",
                "column12": "http://bizlem.io/PurchaseOrderProcessing#Rate",
                "column13": "http://bizlem.io/PurchaseOrderProcessing#GSTPercentage",
                "column2": "http://bizlem.io/PurchaseOrderProcessing#DescriptionOfServices",
                "column3": "http://bizlem.io/PurchaseOrderProcessing#HSN/SAC",
                "column4": "http://bizlem.io/PurchaseOrderProcessing#Quantity",
                "column5": "http://bizlem.io/PurchaseOrderProcessing#Unit",
                "column6": "http://bizlem.io/PurchaseOrderProcessing#TOTAL",
                "column7": "http://bizlem.io/PurchaseOrderProcessing#TaxableAmount",
                "column8": "http://bizlem.io/PurchaseOrderProcessing#Rate",
                "column9": "S.Gst Amount"
            },
            "output": {
                "column1": "http://bizlem.io/PurchaseOrderProcessing#SRNO",
                "column10": "http://bizlem.io/PurchaseOrderProcessing#Rate",
                "column11": "C.Gst Amount",
                "column12": "http://bizlem.io/PurchaseOrderProcessing#Rate",
                "column13": "http://bizlem.io/PurchaseOrderProcessing#GSTPercentage",
                "column2": "http://bizlem.io/PurchaseOrderProcessing#DescriptionOfServices",
                "column3": "http://bizlem.io/PurchaseOrderProcessing#HSN/SAC",
                "column4": "http://bizlem.io/PurchaseOrderProcessing#Quantity",
                "column5": "http://bizlem.io/PurchaseOrderProcessing#Unit",
                "column6": "http://bizlem.io/PurchaseOrderProcessing#TOTAL",
                "column7": "http://bizlem.io/PurchaseOrderProcessing#TaxableAmount",
                "column8": "http://bizlem.io/PurchaseOrderProcessing#Rate",
                "column9": "S.Gst Amount"
            }
        }
    },
    "result": {
        "footer_table_only_url": [
            {
                "http://bizlem.io/PurchaseOrderProcessing#GrossTotal": [
                    17,
                    8520,
                    0,
                    8520,
                    766.8,
                    766.8
                ],
                "line_no": 24
            },
            {
                "http://bizlem.io/PurchaseOrderProcessing#GrossTotal": [
                    10054
                ],
                "line_no": 26
            }
        ],
        "header_table_all": [
            {
                "C.Gst Amount": "648.00 ",
                "S.Gst Amount": "648.00 ",
                "http://bizlem.io/PurchaseOrderProcessing#DescriptionOfServices": "COPPERPIPELOT ",
                "http://bizlem.io/PurchaseOrderProcessing#HSN/SAC": "7411 ",
                "http://bizlem.io/PurchaseOrderProcessing#Rate": "9.00 9.00 ",
                "http://bizlem.io/PurchaseOrderProcessing#SRNO": "1 ",
                "http://bizlem.io/PurchaseOrderProcessing#Unit": "1LOT ",
                "line_no": 15
            },
            {
                "C.Gst Amount": "75.60 ",
                "S.Gst Amount": "75.60 ",
                "http://bizlem.io/PurchaseOrderProcessing#DescriptionOfServices": "ELECTRICALS CABLE ",
                "http://bizlem.io/PurchaseOrderProcessing#HSN/SAC": "8544 ",
                "http://bizlem.io/PurchaseOrderProcessing#Rate": "9.00 9.00 ",
                "http://bizlem.io/PurchaseOrderProcessing#SRNO": "2 ",
                "http://bizlem.io/PurchaseOrderProcessing#TOTAL": "840.00 ",
                "http://bizlem.io/PurchaseOrderProcessing#Unit": "MTR 120.00 ",
                "line_no": 16
            },
            {
                "C.Gst Amount": "43.20 ",
                "S.Gst Amount": "43.20 ",
                "http://bizlem.io/PurchaseOrderProcessing#DescriptionOfServices": "PVCDRAIN PIPES ",
                "http://bizlem.io/PurchaseOrderProcessing#HSN/SAC": "3917 ",
                "http://bizlem.io/PurchaseOrderProcessing#Rate": "9.00 9.00 ",
                "http://bizlem.io/PurchaseOrderProcessing#SRNO": "3 ",
                "http://bizlem.io/PurchaseOrderProcessing#TOTAL": "480.00 ",
                "http://bizlem.io/PurchaseOrderProcessing#Unit": "RFT 120.00 ",
                "line_no": 17
            },
            {
                "http://bizlem.io/PurchaseOrderProcessing#DescriptionOfServices": "TAX CODE ",
                "line_no": 18
            },
            {
                "http://bizlem.io/PurchaseOrderProcessing#DescriptionOfServices": "ITC ELIGIBLE ",
                "line_no": 19
            },
            {
                "http://bizlem.io/PurchaseOrderProcessing#DescriptionOfServices": "ITC NOTELIGIBLE ",
                "line_no": 20
            },
            {
                "http://bizlem.io/PurchaseOrderProcessing#DescriptionOfServices": "GSTPAYABLE ",
                "line_no": 21
            },
            {
                "http://bizlem.io/PurchaseOrderProcessing#DescriptionOfServices": "SSTEXGSTEXEMPTED ",
                "line_no": 22
            },
            {
                "http://bizlem.io/PurchaseOrderProcessing#DescriptionOfServices": "Led ",
                "line_no": 23
            }
        ],
        "header_table_only_url": [
            {
                "http://bizlem.io/PurchaseOrderProcessing#AMOUNT": "",
                "http://bizlem.io/PurchaseOrderProcessing#CGST": "",
                "http://bizlem.io/PurchaseOrderProcessing#CGSTAmt": "",
                "http://bizlem.io/PurchaseOrderProcessing#CGSTPercent": "",
                "http://bizlem.io/PurchaseOrderProcessing#Description": "",
                "http://bizlem.io/PurchaseOrderProcessing#HSN/SAC": "7411 ",
                "http://bizlem.io/PurchaseOrderProcessing#IGST": "",
                "http://bizlem.io/PurchaseOrderProcessing#IGSTAmt": "",
                "http://bizlem.io/PurchaseOrderProcessing#IGSTPercent": "",
                "http://bizlem.io/PurchaseOrderProcessing#PreTaxAmount": "",
                "http://bizlem.io/PurchaseOrderProcessing#Quantity": "",
                "http://bizlem.io/PurchaseOrderProcessing#Rate": "9.00 9.00 ",
                "http://bizlem.io/PurchaseOrderProcessing#SGST": "",
                "http://bizlem.io/PurchaseOrderProcessing#SGSTAmt": "",
                "http://bizlem.io/PurchaseOrderProcessing#SGSTPercent": "",
                "http://bizlem.io/PurchaseOrderProcessing#SRNO": "1 ",
                "http://bizlem.io/PurchaseOrderProcessing#TOTAL": "",
                "http://bizlem.io/PurchaseOrderProcessing#Unit": "1LOT ",
                "line_no": 15
            },
            {
                "http://bizlem.io/PurchaseOrderProcessing#AMOUNT": "",
                "http://bizlem.io/PurchaseOrderProcessing#CGST": "",
                "http://bizlem.io/PurchaseOrderProcessing#CGSTAmt": "",
                "http://bizlem.io/PurchaseOrderProcessing#CGSTPercent": "",
                "http://bizlem.io/PurchaseOrderProcessing#Description": "",
                "http://bizlem.io/PurchaseOrderProcessing#HSN/SAC": "8544 ",
                "http://bizlem.io/PurchaseOrderProcessing#IGST": "",
                "http://bizlem.io/PurchaseOrderProcessing#IGSTAmt": "",
                "http://bizlem.io/PurchaseOrderProcessing#IGSTPercent": "",
                "http://bizlem.io/PurchaseOrderProcessing#PreTaxAmount": "",
                "http://bizlem.io/PurchaseOrderProcessing#Quantity": "",
                "http://bizlem.io/PurchaseOrderProcessing#Rate": "9.00 9.00 ",
                "http://bizlem.io/PurchaseOrderProcessing#SGST": "",
                "http://bizlem.io/PurchaseOrderProcessing#SGSTAmt": "",
                "http://bizlem.io/PurchaseOrderProcessing#SGSTPercent": "",
                "http://bizlem.io/PurchaseOrderProcessing#SRNO": "2 ",
                "http://bizlem.io/PurchaseOrderProcessing#TOTAL": "840.00 ",
                "http://bizlem.io/PurchaseOrderProcessing#Unit": "MTR 120.00 ",
                "line_no": 16
            },
            {
                "http://bizlem.io/PurchaseOrderProcessing#AMOUNT": "",
                "http://bizlem.io/PurchaseOrderProcessing#CGST": "",
                "http://bizlem.io/PurchaseOrderProcessing#CGSTAmt": "",
                "http://bizlem.io/PurchaseOrderProcessing#CGSTPercent": "",
                "http://bizlem.io/PurchaseOrderProcessing#Description": "",
                "http://bizlem.io/PurchaseOrderProcessing#HSN/SAC": "3917 ",
                "http://bizlem.io/PurchaseOrderProcessing#IGST": "",
                "http://bizlem.io/PurchaseOrderProcessing#IGSTAmt": "",
                "http://bizlem.io/PurchaseOrderProcessing#IGSTPercent": "",
                "http://bizlem.io/PurchaseOrderProcessing#PreTaxAmount": "",
                "http://bizlem.io/PurchaseOrderProcessing#Quantity": "",
                "http://bizlem.io/PurchaseOrderProcessing#Rate": "9.00 9.00 ",
                "http://bizlem.io/PurchaseOrderProcessing#SGST": "",
                "http://bizlem.io/PurchaseOrderProcessing#SGSTAmt": "",
                "http://bizlem.io/PurchaseOrderProcessing#SGSTPercent": "",
                "http://bizlem.io/PurchaseOrderProcessing#SRNO": "3 ",
                "http://bizlem.io/PurchaseOrderProcessing#TOTAL": "480.00 ",
                "http://bizlem.io/PurchaseOrderProcessing#Unit": "RFT 120.00 ",
                "line_no": 17
            },
            {
                "http://bizlem.io/PurchaseOrderProcessing#AMOUNT": "",
                "http://bizlem.io/PurchaseOrderProcessing#CGST": "",
                "http://bizlem.io/PurchaseOrderProcessing#CGSTAmt": "",
                "http://bizlem.io/PurchaseOrderProcessing#CGSTPercent": "",
                "http://bizlem.io/PurchaseOrderProcessing#Description": "",
                "http://bizlem.io/PurchaseOrderProcessing#HSN/SAC": "",
                "http://bizlem.io/PurchaseOrderProcessing#IGST": "",
                "http://bizlem.io/PurchaseOrderProcessing#IGSTAmt": "",
                "http://bizlem.io/PurchaseOrderProcessing#IGSTPercent": "",
                "http://bizlem.io/PurchaseOrderProcessing#PreTaxAmount": "",
                "http://bizlem.io/PurchaseOrderProcessing#Quantity": "",
                "http://bizlem.io/PurchaseOrderProcessing#Rate": "",
                "http://bizlem.io/PurchaseOrderProcessing#SGST": "",
                "http://bizlem.io/PurchaseOrderProcessing#SGSTAmt": "",
                "http://bizlem.io/PurchaseOrderProcessing#SGSTPercent": "",
                "http://bizlem.io/PurchaseOrderProcessing#SRNO": "",
                "http://bizlem.io/PurchaseOrderProcessing#TOTAL": "",
                "http://bizlem.io/PurchaseOrderProcessing#Unit": "",
                "line_no": 18
            },
            {
                "http://bizlem.io/PurchaseOrderProcessing#AMOUNT": "",
                "http://bizlem.io/PurchaseOrderProcessing#CGST": "",
                "http://bizlem.io/PurchaseOrderProcessing#CGSTAmt": "",
                "http://bizlem.io/PurchaseOrderProcessing#CGSTPercent": "",
                "http://bizlem.io/PurchaseOrderProcessing#Description": "",
                "http://bizlem.io/PurchaseOrderProcessing#HSN/SAC": "",
                "http://bizlem.io/PurchaseOrderProcessing#IGST": "",
                "http://bizlem.io/PurchaseOrderProcessing#IGSTAmt": "",
                "http://bizlem.io/PurchaseOrderProcessing#IGSTPercent": "",
                "http://bizlem.io/PurchaseOrderProcessing#PreTaxAmount": "",
                "http://bizlem.io/PurchaseOrderProcessing#Quantity": "",
                "http://bizlem.io/PurchaseOrderProcessing#Rate": "",
                "http://bizlem.io/PurchaseOrderProcessing#SGST": "",
                "http://bizlem.io/PurchaseOrderProcessing#SGSTAmt": "",
                "http://bizlem.io/PurchaseOrderProcessing#SGSTPercent": "",
                "http://bizlem.io/PurchaseOrderProcessing#SRNO": "",
                "http://bizlem.io/PurchaseOrderProcessing#TOTAL": "",
                "http://bizlem.io/PurchaseOrderProcessing#Unit": "",
                "line_no": 19
            },
            {
                "http://bizlem.io/PurchaseOrderProcessing#AMOUNT": "",
                "http://bizlem.io/PurchaseOrderProcessing#CGST": "",
                "http://bizlem.io/PurchaseOrderProcessing#CGSTAmt": "",
                "http://bizlem.io/PurchaseOrderProcessing#CGSTPercent": "",
                "http://bizlem.io/PurchaseOrderProcessing#Description": "",
                "http://bizlem.io/PurchaseOrderProcessing#HSN/SAC": "",
                "http://bizlem.io/PurchaseOrderProcessing#IGST": "",
                "http://bizlem.io/PurchaseOrderProcessing#IGSTAmt": "",
                "http://bizlem.io/PurchaseOrderProcessing#IGSTPercent": "",
                "http://bizlem.io/PurchaseOrderProcessing#PreTaxAmount": "",
                "http://bizlem.io/PurchaseOrderProcessing#Quantity": "",
                "http://bizlem.io/PurchaseOrderProcessing#Rate": "",
                "http://bizlem.io/PurchaseOrderProcessing#SGST": "",
                "http://bizlem.io/PurchaseOrderProcessing#SGSTAmt": "",
                "http://bizlem.io/PurchaseOrderProcessing#SGSTPercent": "",
                "http://bizlem.io/PurchaseOrderProcessing#SRNO": "",
                "http://bizlem.io/PurchaseOrderProcessing#TOTAL": "",
                "http://bizlem.io/PurchaseOrderProcessing#Unit": "",
                "line_no": 20
            },
            {
                "http://bizlem.io/PurchaseOrderProcessing#AMOUNT": "",
                "http://bizlem.io/PurchaseOrderProcessing#CGST": "",
                "http://bizlem.io/PurchaseOrderProcessing#CGSTAmt": "",
                "http://bizlem.io/PurchaseOrderProcessing#CGSTPercent": "",
                "http://bizlem.io/PurchaseOrderProcessing#Description": "",
                "http://bizlem.io/PurchaseOrderProcessing#HSN/SAC": "",
                "http://bizlem.io/PurchaseOrderProcessing#IGST": "",
                "http://bizlem.io/PurchaseOrderProcessing#IGSTAmt": "",
                "http://bizlem.io/PurchaseOrderProcessing#IGSTPercent": "",
                "http://bizlem.io/PurchaseOrderProcessing#PreTaxAmount": "",
                "http://bizlem.io/PurchaseOrderProcessing#Quantity": "",
                "http://bizlem.io/PurchaseOrderProcessing#Rate": "",
                "http://bizlem.io/PurchaseOrderProcessing#SGST": "",
                "http://bizlem.io/PurchaseOrderProcessing#SGSTAmt": "",
                "http://bizlem.io/PurchaseOrderProcessing#SGSTPercent": "",
                "http://bizlem.io/PurchaseOrderProcessing#SRNO": "",
                "http://bizlem.io/PurchaseOrderProcessing#TOTAL": "",
                "http://bizlem.io/PurchaseOrderProcessing#Unit": "",
                "line_no": 21
            },
            {
                "http://bizlem.io/PurchaseOrderProcessing#AMOUNT": "",
                "http://bizlem.io/PurchaseOrderProcessing#CGST": "",
                "http://bizlem.io/PurchaseOrderProcessing#CGSTAmt": "",
                "http://bizlem.io/PurchaseOrderProcessing#CGSTPercent": "",
                "http://bizlem.io/PurchaseOrderProcessing#Description": "",
                "http://bizlem.io/PurchaseOrderProcessing#HSN/SAC": "",
                "http://bizlem.io/PurchaseOrderProcessing#IGST": "",
                "http://bizlem.io/PurchaseOrderProcessing#IGSTAmt": "",
                "http://bizlem.io/PurchaseOrderProcessing#IGSTPercent": "",
                "http://bizlem.io/PurchaseOrderProcessing#PreTaxAmount": "",
                "http://bizlem.io/PurchaseOrderProcessing#Quantity": "",
                "http://bizlem.io/PurchaseOrderProcessing#Rate": "",
                "http://bizlem.io/PurchaseOrderProcessing#SGST": "",
                "http://bizlem.io/PurchaseOrderProcessing#SGSTAmt": "",
                "http://bizlem.io/PurchaseOrderProcessing#SGSTPercent": "",
                "http://bizlem.io/PurchaseOrderProcessing#SRNO": "",
                "http://bizlem.io/PurchaseOrderProcessing#TOTAL": "",
                "http://bizlem.io/PurchaseOrderProcessing#Unit": "",
                "line_no": 22
            },
            {
                "http://bizlem.io/PurchaseOrderProcessing#AMOUNT": "",
                "http://bizlem.io/PurchaseOrderProcessing#CGST": "",
                "http://bizlem.io/PurchaseOrderProcessing#CGSTAmt": "",
                "http://bizlem.io/PurchaseOrderProcessing#CGSTPercent": "",
                "http://bizlem.io/PurchaseOrderProcessing#Description": "",
                "http://bizlem.io/PurchaseOrderProcessing#HSN/SAC": "",
                "http://bizlem.io/PurchaseOrderProcessing#IGST": "",
                "http://bizlem.io/PurchaseOrderProcessing#IGSTAmt": "",
                "http://bizlem.io/PurchaseOrderProcessing#IGSTPercent": "",
                "http://bizlem.io/PurchaseOrderProcessing#PreTaxAmount": "",
                "http://bizlem.io/PurchaseOrderProcessing#Quantity": "",
                "http://bizlem.io/PurchaseOrderProcessing#Rate": "",
                "http://bizlem.io/PurchaseOrderProcessing#SGST": "",
                "http://bizlem.io/PurchaseOrderProcessing#SGSTAmt": "",
                "http://bizlem.io/PurchaseOrderProcessing#SGSTPercent": "",
                "http://bizlem.io/PurchaseOrderProcessing#SRNO": "",
                "http://bizlem.io/PurchaseOrderProcessing#TOTAL": "",
                "http://bizlem.io/PurchaseOrderProcessing#Unit": "",
                "line_no": 23
            }
        ],
        "http://bizlem.io/PurchaseOrderProcessing#Bill_To": null,
        "http://bizlem.io/PurchaseOrderProcessing#CGSTPercentage": null,
        "http://bizlem.io/PurchaseOrderProcessing#CGST_Amount": null,
        "http://bizlem.io/PurchaseOrderProcessing#EssarGSTIN": null,
        "http://bizlem.io/PurchaseOrderProcessing#GSTIN": "24AADCC8528K1ZH",
        "http://bizlem.io/PurchaseOrderProcessing#GrossTotal": 10054,
        "http://bizlem.io/PurchaseOrderProcessing#Hazira": null,
        "http://bizlem.io/PurchaseOrderProcessing#IGSTPercentage": null,
        "http://bizlem.io/PurchaseOrderProcessing#IGST_Amount": null,
        "http://bizlem.io/PurchaseOrderProcessing#Invoice_Date": null,
        "http://bizlem.io/PurchaseOrderProcessing#Invoice_Number": null,
        "http://bizlem.io/PurchaseOrderProcessing#L.R._Dt": null,
        "http://bizlem.io/PurchaseOrderProcessing#L.R._No": null,
        "http://bizlem.io/PurchaseOrderProcessing#PAN_Number": null,
        "http://bizlem.io/PurchaseOrderProcessing#Purchase_Order_Number": null,
        "http://bizlem.io/PurchaseOrderProcessing#SERVICES_TAX_REG_NO": null,
        "http://bizlem.io/PurchaseOrderProcessing#SGSTPercentage": null,
        "http://bizlem.io/PurchaseOrderProcessing#SGST_Amount": null,
        "http://bizlem.io/PurchaseOrderProcessing#Ship_To": null,
        "http://bizlem.io/PurchaseOrderProcessing#TAN": null,
        "http://bizlem.io/PurchaseOrderProcessing#TaxInvoice": true,
        "http://bizlem.io/PurchaseOrderProcessing#Transport": null
    }
}