Entity,Labels
http://bizlem.io/PurchaseOrderProcessing#AmountWords,"'Amount Chargeable (in words)'	'IN WORDS'	'Invoice Value In Words'	'NET AMOUNT in Words'	'In Word's Total'	'amount in words'	'Total Invoice Amount In Words'	'Total (in words)''"
http://bizlem.io/PurchaseOrderProcessing#Buyer,
http://bizlem.io/PurchaseOrderProcessing#Currency,
http://bizlem.io/PurchaseOrderProcessing#Date,"'dated'	'Date'"
http://bizlem.io/PurchaseOrderProcessing#GSTIN,"'GSTIN ID'	'GSTIN'	'GSTIN Registration No'"
http://bizlem.io/PurchaseOrderProcessing#ProductAndService,
http://bizlem.io/PurchaseOrderProcessing#TaxInvoice,"'GST Invoice'	'Tax Invoice'"
http://bizlem.io/PurchaseOrderProcessing#UnitOfMeasurement,'UnitOfMeasure'
http://bizlem.io/PurchaseOrderProcessing#Vendor,"'Vendor Name'	'supplier'"
http://bizlem.io/PurchaseOrderProcessing#HSN/SAC,"'Services Code'	'Service Account'	'HSN'	'SAC Code'	'HSN/SAC'	'HSN Code'	'Service Account Code'"
http://bizlem.io/PurchaseOrderProcessing#AmountNumbers,"'Bill Amount'	'Taxable Amount'	'Value Of Supply'	'Amount'	'NET AMOUNT'"
http://bizlem.io/PurchaseOrderProcessing#CGST,"'C . G . S . T.'	'CGST'"
http://bizlem.io/PurchaseOrderProcessing#ChallanDate,"'challen date'	'challan date'	'chal date'"
http://bizlem.io/PurchaseOrderProcessing#ChallanNumber,"'Challan Number'	'Chal.No'	'ChallanNumber'"
http://bizlem.io/PurchaseOrderProcessing#DescriptionOfServices,"'Nature Of Services'	'Item Description'	'Process'	'Description Of Goods'	'Work Details'	'Name Of Product / Services'	'Services Item'	'Product Description'	'Particulars'	'Job Details'	'Description Specification And Size Of Goods'	'Material Description'	'DESCRIPTION OF SERVICES'	'Description'"
http://bizlem.io/PurchaseOrderProcessing#Discount,"'Total Discount'	'Discount'	'Disc'"
http://bizlem.io/PurchaseOrderProcessing#GSTIN,"'GSTIN ID'	'GSTIN'	'GSTIN Registration No'"
http://bizlem.io/PurchaseOrderProcessing#GrossTotal,"'Grand Total Value'	'GRAND TOTAL'	'Gross Total'	'Total Amount Payable'	'Total Invoice Value''	'Total'"
http://bizlem.io/PurchaseOrderProcessing#IGST,"'IGST'	'Integrated Tax'"
http://bizlem.io/PurchaseOrderProcessing#Invoice_Date,"'Invoice Dt'	'Date of Issue'	'Invoice Date'	'Date of Supply'	'tax invoice date'	'Date of Invoice'"
http://bizlem.io/PurchaseOrderProcessing#Invoice_Number,"'Tax inv No'	'TAX INVOICE NO.'	'GST Invoice No.'	'INVOICE TAX NO'	'Invoicc Serial Vo'	'inv no'	'Serial No. invoice'	'INVOICENO'	'INVOICE NO'	'InvNo'	'Invoice No-'	'Invoice Number'	'Bill no'"
http://bizlem.io/PurchaseOrderProcessing#LRDate,"'Lr Dt'	'LR/RR Date'	'L.R. Dt'	'LR Date'"
http://bizlem.io/PurchaseOrderProcessing#LRNumber,"'L.R. Number'	'Lr No'	'LR/RR No.'"
http://bizlem.io/PurchaseOrderProcessing#OrderReferencenNumber,"'ORDER REFERENCE NO'	'Supplier's reference no'"
http://bizlem.io/PurchaseOrderProcessing#PAN_Number,"'pan'	'PAN Number'	'PAN NO'"
http://bizlem.io/PurchaseOrderProcessing#Purchase_Order_Number,"'WO'	'W.O.NO.'	'Purchaes Order No'	'Buyer's Order No'	'WO. NO'	'Bill Landing No'	'po no'	'Work Order No'	'p o no'	'Buyer'sOrderNo.'	'P.O.No'	'Purchase Order Number'	'P. O No.'"
http://bizlem.io/PurchaseOrderProcessing#Quantity,"'quantity'	'QTY'	'Number Of Samples'	'Elements'	'Oty'"
http://bizlem.io/PurchaseOrderProcessing#Rate,'Rate'
http://bizlem.io/PurchaseOrderProcessing#SGST,"'S . G . S . T.'	'SGST'"
http://bizlem.io/PurchaseOrderProcessing#SNo,"'Service No'	'SNo.'	'Container No'	'SR'	'sr.no.'	'Item No'	'SR NO'"
http://bizlem.io/PurchaseOrderProcessing#Service_Category,"'Service Category'	'SERVICE CATEGORY'"
http://bizlem.io/PurchaseOrderProcessing#Service_Period,"'Duration'	'SERVICE PERIOD'	'Services Period'	'Period'"
http://bizlem.io/PurchaseOrderProcessing#TAN,"'TAN No'	'TAN'"
http://bizlem.io/PurchaseOrderProcessing#Tax_Code,"'Tax Code'	'TAX CODE'"
http://bizlem.io/PurchaseOrderProcessing#Tax_Registration,"'Service Tax No'	'SERVICES TAX REG NO'"
http://bizlem.io/PurchaseOrderProcessing#Transport,"'Transporter'	'Transport'"
http://bizlem.io/PurchaseOrderProcessing#Unit,"'Unit Price'	'unit'	'Unit Rate'"