[
  {
    "text": "BRAEMAR ACM - CLEAN EAST OF SUEZ LR REPORT",
    "position": {
      "x": 19.919992032000003,
      "y": 91.01030035199994
    }
  },
  {
    "text": "04.01.19",
    "position": {
      "x": 516.7192810332049,
      "y": 91.01030035199994
    }
  },
  {
    "text": "LR2:",
    "position": {
      "x": 39.119984351999996,
      "y": 105.65029449600001
    }
  },
  {
    "text": "LR1:",
    "position": {
      "x": 39.119984351999996,
      "y": 138.05028153599994
    }
  },
  {
    "text": "BUNKERS:",
    "position": {
      "x": 33.119986751999996,
      "y": 170.45026857599998
    }
  },
  {
    "text": "SINGAPORE",
    "position": {
      "x": 72.59997096,
      "y": 170.33026862400004
    }
  },
  {
    "text": "356.50",
    "position": {
      "x": 126.23995909209616,
      "y": 170.4502685760001
    }
  },
  {
    "text": " (+ 7.50)",
    "position": {
      "x": 144.239987288282,
      "y": 170.4502685760001
    }
  },
  {
    "text": "FUJAIRAH",
    "position": {
      "x": 72.59997096000001,
      "y": 176.81026603200007
    }
  },
  {
    "text": "339.00",
    "position": {
      "x": 126.23995909209617,
      "y": 176.93026598400002
    }
  },
  {
    "text": " (+ 3.00)",
    "position": {
      "x": 144.239987288282,
      "y": 176.93026598400002
    }
  },
  {
    "text": "LR2",
    "position": {
      "x": 19.679992128,
      "y": 192.65025969600003
    }
  },
  {
    "text": "FRESH TODAY IN BLUE TEXT",
    "position": {
      "x": 456.959817216,
      "y": 191.21026027200003
    }
  },
  {
    "text": "AG/WCIN/RSEA",
    "position": {
      "x": 19.319992272,
      "y": 205.49025456000004
    }
  },
  {
    "text": "BP                12-14/1           VADINAR/EAST                    75 NAP",
    "position": {
      "x": 19.319992272,
      "y": 211.73025206400007
    }
  },
  {
    "text": "RELIANCE          12-14/1           SIKKA/UKC                       90 CPP    RPTD",
    "position": {
      "x": 19.319992272,
      "y": 218.210249472
    }
  },
  {
    "text": "IDEMITSU          15/1              AG/JAPAN                        75 NAP    RPTD",
    "position": {
      "x": 19.319992272,
      "y": 224.69024688000002
    }
  },
  {
    "text": "VITOL             20-22/1           AG/JAPAN                        75 NAP",
    "position": {
      "x": 19.319992272,
      "y": 231.17024428800005
    }
  },
  {
    "text": "ATC",
    "position": {
      "x": 19.319992272,
      "y": 244.130239104
    }
  },
  {
    "text": "VIKTOR BAKAEV             SUBS",
    "position": {
      "x": 311.6394033511888,
      "y": 244.130239104
    }
  },
  {
    "text": "ATC               8/1               AG/JAPAN                        75 NAP    W140               STI STABILITY             SUBS",
    "position": {
      "x": 19.319992271999993,
      "y": 250.61023651200003
    }
  },
  {
    "text": "SHELL             9-10/1            AG/JAPAN                        75 NAP    W140               FS DILIGENCE              SUBS         RPLC SHELL LR1",
    "position": {
      "x": 19.319992271999993,
      "y": 257.09023392000006
    }
  },
  {
    "text": "ATC               10-11/1           AG/UKC-EAFR                     90 ULSD   2.3M-W140          SWARNA KAMAL              SUBS",
    "position": {
      "x": 19.319992272,
      "y": 263.570231328
    }
  },
  {
    "text": "BP                12-14/1           RUWAIS+1/UKC                    80 CPP    2.3M               SKS DONGGANG              SUBS",
    "position": {
      "x": 19.319992272,
      "y": 270.050228736
    }
  },
  {
    "text": "SCG               14/1              AG/EAST                         75 NAP    PLATTS             STI JERMYN                SUBS",
    "position": {
      "x": 19.319992272,
      "y": 276.5302261439999
    }
  },
  {
    "text": "TOTAL             14-15/1           AG/UKC                          90 CPP    2.275M             CHRYSANTHEUM              SUBS         EX DD",
    "position": {
      "x": 19.319992272,
      "y": 283.01022355199996
    }
  },
  {
    "text": "SHELL             15-17/1           AG/JAPAN                        75 NAP    W140               BNEIDER                   SUBS",
    "position": {
      "x": 19.319992272,
      "y": 289.49022096
    }
  },
  {
    "text": "ATC               15-17/1           YANBU/UKC-OPTS                  90 ULSD   1.95M              STI OXFORD                SUBS",
    "position": {
      "x": 19.319992272,
      "y": 295.970218368
    }
  },
  {
    "text": "SOCAR             16-17/1           AG/JAPAN                        75 NAP    W140               GULF VISION               SUBS",
    "position": {
      "x": 19.319992272,
      "y": 302.45021577600005
    }
  },
  {
    "text": "BP                16-18/1           SIKKA/UKC                       90 ULSD   2.25M              TORM HILDE                SUBS",
    "position": {
      "x": 19.319992272,
      "y": 308.93021318399997
    }
  },
  {
    "text": "GPC               18-19/1           SIKKA/UKC                       90 ULSD   2.295M             STI GRATITUDE             SUBS",
    "position": {
      "x": 19.319992272,
      "y": 315.410210592
    }
  },
  {
    "text": "SHELL             18-20/1 TBN       RAS LAFF/UKC                    90 GTL GO 2.3M               KING PHILIPPOS            SUBS",
    "position": {
      "x": 19.319992272,
      "y": 321.89020800000003
    }
  },
  {
    "text": "UNIPEC            18-20/1           YANBU/UKC-OPTS                  90 ULSD   2.0M               SEA STAR                  SUBS",
    "position": {
      "x": 19.319992272,
      "y": 328.37020540800006
    }
  },
  {
    "text": "VITOL             10-12/1           AG/JAPAN                        75 NAP    W140               GULF VALOUR               FXD",
    "position": {
      "x": 19.319992272,
      "y": 341.330200224
    }
  },
  {
    "text": "CARGILL           14/1              AG/EAST                         75 NAP    PLATTS             KLEON                     FXD",
    "position": {
      "x": 19.319992272,
      "y": 347.810197632
    }
  },
  {
    "text": "VITOL             14-16/1           AG/JAPAN                        75 NAP    W140               LYRIC MAGNOLIA            FXD",
    "position": {
      "x": 19.319992272,
      "y": 354.29019504
    }
  },
  {
    "text": "RELIANCE          20-22/1           SIKKA/UKC                       90 ULSD   2.2M               MARLIN LOBELIA            FXD          NB LR2",
    "position": {
      "x": 19.319992272,
      "y": 360.77019244800005
    }
  },
  {
    "text": "FAR EAST",
    "position": {
      "x": 19.319992272,
      "y": 373.610187312
    }
  },
  {
    "text": "BP                15-17/1           DALIAN/SPOR-OPTS                90 ULSD   POSS",
    "position": {
      "x": 19.319992272,
      "y": 380.21018467199997
    }
  },
  {
    "text": "PETROCHINA        16-17/1           JINZHOU/SPOR                    80 ULSD   LR1 ON SUBS BUT POSS GOING BACK TO LR2",
    "position": {
      "x": 19.319992272,
      "y": 386.69018208
    }
  },
  {
    "text": "IASONAS                   SUBS",
    "position": {
      "x": 311.6394033511888,
      "y": 399.650176896
    }
  },
  {
    "text": "KOCH              17-19/1           SKOREA/UKC                      90 GO     2.2M               PROSTAR OO PROSKY         SUBS         NR LR2 (TAURUS)",
    "position": {
      "x": 19.319992272,
      "y": 406.130174304
    }
  },
  {
    "text": "BP                18/1              YANGPU/OZ                       75 JET    W140               ZALIV VOSTOK              SUBS",
    "position": {
      "x": 19.319992272,
      "y": 412.610171712
    }
  },
  {
    "text": "BP                20-22/1           DALIAN/UKC-WAFR-SPOR            90 ULSD   2.2M-2.0M-625K     MARLIN LILY OO            SUBS         NB LR2 (TRAFIGURA)",
    "position": {
      "x": 19.319992272,
      "y": 419.09016912
    }
  },
  {
    "text": "LR1",
    "position": {
      "x": 19.679992128,
      "y": 435.29016263999995
    }
  },
  {
    "text": "FRESH TODAY IN BLUE TEXT",
    "position": {
      "x": 456.959817216,
      "y": 433.850163216
    }
  },
  {
    "text": "AG/WCIN/RSEA",
    "position": {
      "x": 19.319992272,
      "y": 448.49015736
    }
  },
  {
    "text": "BP                12-14/1           AG/EAST                         55 NAP",
    "position": {
      "x": 19.319992272,
      "y": 454.730154864
    }
  },
  {
    "text": "VITOL             14-15/1           SIKKA/USAC                      60 ALKY",
    "position": {
      "x": 19.319992272,
      "y": 461.21015227199996
    }
  },
  {
    "text": "VITOL             5-7/1             FUJ/KARACHI                     60 GO     450K               SOVERIGN                  SUBS",
    "position": {
      "x": 19.319992272,
      "y": 474.17014708799996
    }
  },
  {
    "text": "ATC               9/1               AG/UKC                          60 JET    2.25M              SUMMIT AFRICA             SUBS",
    "position": {
      "x": 19.319992272,
      "y": 480.650144496
    }
  },
  {
    "text": "ENOC              11-13/1           SIKKA/FUJ                       60 UMS    470K               LILAC VICTORIA            SUBS         2ND STEM",
    "position": {
      "x": 19.319992272,
      "y": 487.130141904
    }
  },
  {
    "text": "KOCH              12-13/1           SIKKA/UKC                       60 JET    2.1M               LAKE TROUT                SUBS",
    "position": {
      "x": 19.319992272,
      "y": 493.610139312
    }
  },
  {
    "text": "ATC               6/1               JUBAIL/FUJ                      60 UMS    410K               SUNRISE                   FXD",
    "position": {
      "x": 19.319992272,
      "y": 506.570134128
    }
  },
  {
    "text": "ENOC              11/1              SIKKA/FUJ                       60 UMS    470K               SCF ALPINE                FXD",
    "position": {
      "x": 19.319992272,
      "y": 513.050131536
    }
  },
  {
    "text": "STL               18-19/1           SIKKA/SPOR                      55 NAP    900K 1:1           SCF PIONEER               FXD",
    "position": {
      "x": 19.319992272,
      "y": 519.530128944
    }
  },
  {
    "text": "TOTAL             9-10/1            AG/UKC-USAC                     60 UMS    2.125M             SUNRISE                   FLD          SEEMS WENT MR IN THE END",
    "position": {
      "x": 19.319992272,
      "y": 532.49012376
    }
  },
  {
    "text": "ATC               10/1              AG/JAPAN                        55 NAP    W195               UACC IBN SINA             FLD          TOOK SCORPIO LR2",
    "position": {
      "x": 19.319992272,
      "y": 538.9701211680001
    }
  },
  {
    "text": "FAR EAST",
    "position": {
      "x": 19.319992272,
      "y": 552.1701158879999
    }
  },
  {
    "text": "SKE               9-11/1            SKOR/SPOR                       60 UMS",
    "position": {
      "x": 19.319992272,
      "y": 558.410113392
    }
  },
  {
    "text": "MIGHT GO LR2",
    "position": {
      "x": 253.679898528,
      "y": 558.410113392
    }
  },
  {
    "text": "PETROCHINA        18/1              DALIAN/SPOR                     60 CPP",
    "position": {
      "x": 19.319535409182755,
      "y": 564.8901108
    }
  },
  {
    "text": "SINOCHEM          18-20/1           DALIAN/SPOR                     60 UMS",
    "position": {
      "x": 19.319992272,
      "y": 571.370108208
    }
  },
  {
    "text": "TRAFIGURA         9-11/1            BATAAN/SPOR                     60 UMS    625K               LIA                       SUBS         TOP UP IN YANGPU - EX DD",
    "position": {
      "x": 19.319992272,
      "y": 584.330103024
    }
  },
  {
    "text": "SHELL             14-15/1           DALIAN/SPOR                     60 UMS    700K               GINNY                     SUBS",
    "position": {
      "x": 19.319992272,
      "y": 590.810100432
    }
  },
  {
    "text": "PETROCHINA        16-17/1           JINZHOU/SPOR                    60 ULSD   700K               MARILEE                   SUBS         800K IF ICE RESTRICTION",
    "position": {
      "x": 19.319992272,
      "y": 597.2900978399999
    }
  },
  {
    "text": "PETROCHINA        10-12/1           DALIAN/SPOR                     60 UMS    695K               EVRIDIKI                  FXD",
    "position": {
      "x": 19.319992272,
      "y": 610.250092656
    }
  },
  {
    "text": "PETROCHINA        15/1              DALIAN/SPOR                     60 CPP    RNR                KONG QUE ZUO              FXD",
    "position": {
      "x": 19.319992272,
      "y": 616.730090064
    }
  },
  {
    "text": "PETROCHINA        17-19/1           SCHINA/SPOR                     60 UMS    630K               SPOTTAIL                  FXD          CHANGE OF VOY",
    "position": {
      "x": 19.319992272,
      "y": 623.2100874719999
    }
  },
  {
    "text": "BRAEMAR ACM SINGAPORE",
    "position": {
      "x": 19.319992272,
      "y": 649.370077008
    }
  },
  {
    "text": "BRAEMAR ACM DUBAI",
    "position": {
      "x": 504.959758120016,
      "y": 649.370077008
    }
  },
  {
    "text": "Office: +65 6516 9589",
    "position": {
      "x": 19.319992271999993,
      "y": 655.850074416
    }
  },
  {
    "text": "Office: +971 (0) 4 417 2901",
    "position": {
      "x": 474.9593781661727,
      "y": 655.850074416
    }
  },
  {
    "text": "Simon Winthrop    : +65 9650 6280",
    "position": {
      "x": 19.319992271999993,
      "y": 668.5700693279999
    }
  },
  {
    "text": "Tom Stott : +971 (0) 52 967 1035",
    "position": {
      "x": 459.9601870698516,
      "y": 668.5700693279999
    }
  },
  {
    "text": "Henry Johnston    : +65 9655 2312",
    "position": {
      "x": 19.319992271999993,
      "y": 675.050066736
    }
  },
  {
    "text": "Terry Collins : +971 (0) 56 811 4423",
    "position": {
      "x": 447.95963553607413,
      "y": 675.050066736
    }
  },
  {
    "text": "Liu Fan",
    "position": {
      "x": 19.319992271999993,
      "y": 681.770064048
    }
  },
  {
    "text": ": +65 9615 8259",
    "position": {
      "x": 72.59998383569486,
      "y": 681.5300641439999
    }
  },
  {
    "text": "Jack Herron : +971 (0) 52 967 1054",
    "position": {
      "x": 453.9596116387827,
      "y": 681.5300641439999
    }
  },
  {
    "text": "Eric Choo         : +65 8233 4377",
    "position": {
      "x": 19.319692607819828,
      "y": 688.2500614559999
    }
  },
  {
    "text": "Market still waiting for a bit of solid enquiry, however when this does come, it is highly likely we will see a downward correction. Availability of tonnage in ",
    "position": {
      "x": 72.59968417151468,
      "y": 137.69028168
    }
  },
  {
    "text": "the AG shouldn't worry charterers. The Northern Asian market continues to be dominated by the Chinese exports which are allowing owners to maintain levels, with ",
    "position": {
      "x": 72.59968417151468,
      "y": 143.57027932799997
    }
  },
  {
    "text": "a few cargoes jumping to LR2s however, owners may find it hard to push on much further than the current level... Have a great weekend.",
    "position": {
      "x": 72.59968417151468,
      "y": 149.45027697599994
    }
  },
  {
    "text": "Pretty active market to finish the week although the supply of ships in the AG has withheld any opportunities for owners to think about pushing the rates up.. ",
    "position": {
      "x": 72.59968417151468,
      "y": 105.29029463999996
    }
  },
  {
    "text": "TC1 remains stable at W140 whilst the UKC runs are clearing at Arnd 2.3m. Bits and pieces happening in the Far East but mainly under the radar with a few ",
    "position": {
      "x": 72.59968417151468,
      "y": 111.17029228799993
    }
  },
  {
    "text": "unknowns and cargoes swapping between sizes creating a little bit of confusion. Non-NB rates need a test and will no doubt be under pressure from last done.",
    "position": {
      "x": 72.59968417151468,
      "y": 117.05028993600001
    }
  }
]